%YAML 1.1
%TAG !u! tag:unity3d.com,2011:
--- !u!114 &11400000
MonoBehaviour:
  m_ObjectHideFlags: 0
  m_CorrespondingSourceObject: {fileID: 0}
  m_PrefabInternal: {fileID: 0}
  m_GameObject: {fileID: 0}
  m_Enabled: 1
  m_EditorHideFlags: 0
  m_Script: {fileID: 11500000, guid: feedb0876da62b6428f3968820caeb4c, type: 3}
  m_Name: PlayerData
  m_EditorClassIdentifier: 
  init_maxHealth: 1000
  init_attack: 100
  init_maxSlots: 1
  currentMaxHealth: 1000
  currentHealth: 700
  currentAttack: 100
  currentMaxSlots: 1
